Data Science in Healthcare Field with R
…
patients <- read_csv(here("data/raw/tutorial_patients.csv"))

Rows: 50 Columns: 5
── Column specification ────────────────────────────────────────────────────────
Delimiter: ","
chr (2): gender, dod
dbl (3): subject_id, anchor_age, anchor_year

ℹ Use `spec()` to retrieve the full column specification for this data.
ℹ Specify the column types or set `show_col_types = FALSE` to quiet this message.

patients

# A tibble: 50 × 5
   subject_id gender anchor_age anchor_year dod      
        <dbl> <chr>       <dbl>       <dbl> <chr>    
 1   15256812 M              45        2133 <NA>     
 2   17334909 F              64        2133 <NA>     
 3   15701559 M              89        2131 2131.7.30
 4   16051778 F              79        2159 <NA>     
 5   18137539 M              52        2142 <NA>     
 6   12294223 M              56        2145 <NA>     
 7   18316605 F              53        2165 <NA>     
 8   14133706 F              89        2149 <NA>     
 9   16113779 F              57        2154 2154.7.11
10   15386471 F              29        2117 <NA>     
# ℹ 40 more rows

patients <- read_csv(here("data/raw/tutorial_patients.csv"),
    col_types = cols(dod = col_date(format = "%Y.%m.%d"))
)
patients

# A tibble: 50 × 5
   subject_id gender anchor_age anchor_year dod       
        <dbl> <chr>       <dbl>       <dbl> <date>    
 1   15256812 M              45        2133 NA        
 2   17334909 F              64        2133 NA        
 3   15701559 M              89        2131 2131-07-30
 4   16051778 F              79        2159 NA        
 5   18137539 M              52        2142 NA        
 6   12294223 M              56        2145 NA        
 7   18316605 F              53        2165 NA        
 8   14133706 F              89        2149 NA        
 9   16113779 F              57        2154 2154-07-11
10   15386471 F              29        2117 NA        
# ℹ 40 more rows
…
patients <- read_csv(file = here("data/raw/tutorial_patients_CP949.csv"), locale = locale(encoding = "EUC-KR"))

Rows: 50 Columns: 5
── Column specification ────────────────────────────────────────────────────────
Delimiter: ","
chr (2): 성별, 사망일자
dbl (3): 등록번호, 기준나이, 기준년도

ℹ Use `spec()` to retrieve the full column specification for this data.
ℹ Specify the column types or set `show_col_types = FALSE` to quiet this message.

patients

# A tibble: 50 × 5
   등록번호 성별  기준나이 기준년도 사망일자 
      <dbl> <chr>    <dbl>    <dbl> <chr>    
 1 15256812 M           45     2133 <NA>     
 2 17334909 F           64     2133 <NA>     
 3 15701559 M           89     2131 2131.7.30
 4 16051778 F           79     2159 <NA>     
 5 18137539 M           52     2142 <NA>     
 6 12294223 M           56     2145 <NA>     
 7 18316605 F           53     2165 <NA>     
 8 14133706 F           89     2149 <NA>     
 9 16113779 F           57     2154 2154.7.11
10 15386471 F           29     2117 <NA>     
# ℹ 40 more rows

Read Excel File

readxl::excel_sheets(): 엑셀 파일에 포함된 spreadsheet의 종류 확인

readxl::read_excel(): 엑셀파일을 읽을 때

library(readxl)
excel_sheets(here("data/raw/tutorial_patients.xlsx"))

[1] "tutorial_patients"

read_excel(here("data/raw/tutorial_patients.xlsx"))

# A tibble: 50 × 5
   subject_id gender anchor_age anchor_year dod                
        <dbl> <chr>       <dbl>       <dbl> <dttm>             
 1   15256812 M              45        2133 NA                 
 2   17334909 F              64        2133 NA                 
 3   15701559 M              89        2131 2131-07-30 00:00:00
 4   16051778 F              79        2159 NA                 
 5   18137539 M              52        2142 NA                 
 6   12294223 M              56        2145 NA                 
 7   18316605 F              53        2165 NA                 
 8   14133706 F              89        2149 NA                 
 9   16113779 F              57        2154 2154-07-11 00:00:00
10   15386471 F              29        2117 NA                 
# ℹ 40 more rows
…
