Data Science in Healthcare Field with R
…
demographic <- read_csv(here("data/raw/tutorial_demographic.csv"))

Rows: 5 Columns: 3
── Column specification ────────────────────────────────────────────────────────
Delimiter: ","
chr (1): sex
dbl (2): No, age

ℹ Use `spec()` to retrieve the full column specification for this data.
ℹ Specify the column types or set `show_col_types = FALSE` to quiet this message.

cytokine

# A tibble: 36 × 5
   Sample Cytokine Value Project             TimePoint
   <chr>  <chr>    <dbl> <chr>                   <dbl>
 1 S02    IL-6       187 Longitudinal Sepsis         1
 2 S02    IL-10       37 Longitudinal Sepsis         1
 3 S02    IL-2        15 Longitudinal Sepsis         1
 4 S02    IL-6       190 Longitudinal Sepsis         1
 5 S02    IL-10       39 Longitudinal Sepsis         1
 6 S02    IL-2        15 Longitudinal Sepsis         1
 7 S02    IL-6        16 Longitudinal Sepsis         2
 8 S02    IL-10       18 Longitudinal Sepsis         2
 9 S02    IL-2        14 Longitudinal Sepsis         2
10 S02    IL-6        16 Longitudinal Sepsis         2
# ℹ 26 more rows
…
select(): select column

<-을 써서 assign 하지 않으면 변경되지 않습니다.

cytokine %>% select(Sample, TimePoint, Cytokine, Value)

# A tibble: 36 × 4
   Sample TimePoint Cytokine Value
   <chr>      <dbl> <chr>    <dbl>
 1 S02            1 IL-6       187
 2 S02            1 IL-10       37
 3 S02            1 IL-2        15
 4 S02            1 IL-6       190
 5 S02            1 IL-10       39
 6 S02            1 IL-2        15
 7 S02            2 IL-6        16
 8 S02            2 IL-10       18
 9 S02            2 IL-2        14
10 S02            2 IL-6        16
# ℹ 26 more rows

cytokine %>% select(sample = Sample, timepoint = TimePoint, cytokine = Cytokine, value = Value)

# A tibble: 36 × 4
   sample timepoint cytokine value
   <chr>      <dbl> <chr>    <dbl>
 1 S02            1 IL-6       187
 2 S02            1 IL-10       37
 3 S02            1 IL-2        15
 4 S02            1 IL-6       190
 5 S02            1 IL-10       39
 6 S02            1 IL-2        15
 7 S02            2 IL-6        16
 8 S02            2 IL-10       18
 9 S02            2 IL-2        14
10 S02            2 IL-6        16
# ℹ 26 more rows
…
# A tibble: 6 × 5
  Sample Cytokine Value Project             TimePoint
  <chr>  <chr>    <dbl> <chr>                   <dbl>
1 S02    IL-6       187 Longitudinal Sepsis         1
2 S02    IL-10       37 Longitudinal Sepsis         1
3 S02    IL-2        15 Longitudinal Sepsis         1
4 S02    IL-6       190 Longitudinal Sepsis         1
5 S02    IL-10       39 Longitudinal Sepsis         1
6 S02    IL-2        15 Longitudinal Sepsis         1

cytokine %>% filter(Cytokine %in% c("IL-6", "IL-10"))

# A tibble: 24 × 5
   Sample Cytokine Value Project             TimePoint
   <chr>  <chr>    <dbl> <chr>                   <dbl>
 1 S02    IL-6       187 Longitudinal Sepsis         1
 2 S02    IL-10       37 Longitudinal Sepsis         1
 3 S02    IL-6       190 Longitudinal Sepsis         1
 4 S02    IL-10       39 Longitudinal Sepsis         1
 5 S02    IL-6        16 Longitudinal Sepsis         2
 6 S02    IL-10       18 Longitudinal Sepsis         2
 7 S02    IL-6        16 Longitudinal Sepsis         2
 8 S02    IL-10       18 Longitudinal Sepsis         2
 9 S02    IL-6        33 Longitudinal Sepsis         3
10 S02    IL-10       19 Longitudinal Sepsis         3
# ℹ 14 more rows

mutate(): create column

cytokine <- cytokine %>%
    mutate(no = readr::parse_number(Sample), .before = "Sample")
cytokine

# A tibble: 36 × 6
      no Sample Cytokine Value Project             TimePoint
   <dbl> <chr>  <chr>    <dbl> <chr>                   <dbl>
 1     2 S02    IL-6       187 Longitudinal Sepsis         1
 2     2 S02    IL-10       37 Longitudinal Sepsis         1
 3     2 S02    IL-2        15 Longitudinal Sepsis         1
 4     2 S02    IL-6       190 Longitudinal Sepsis         1
 5     2 S02    IL-10       39 Longitudinal Sepsis         1
 6     2 S02    IL-2        15 Longitudinal Sepsis         1
 7     2 S02    IL-6        16 Longitudinal Sepsis         2
 8     2 S02    IL-10       18 Longitudinal Sepsis         2
 9     2 S02    IL-2        14 Longitudinal Sepsis         2
10     2 S02    IL-6        16 Longitudinal Sepsis         2
# ℹ 26 more rows

bind_rows() or bind_cols() : merge two table without key (rbind(), cbind())

bind_rows(s02, s03)

# A tibble: 36 × 5
   Sample Cytokine Value Project             TimePoint
   <chr>  <chr>    <dbl> <chr>                   <dbl>
 1 S02    IL-6       187 Longitudinal Sepsis         1
 2 S02    IL-10       37 Longitudinal Sepsis         1
 3 S02    IL-2        15 Longitudinal Sepsis         1
 4 S02    IL-6       190 Longitudinal Sepsis         1
 5 S02    IL-10       39 Longitudinal Sepsis         1
 6 S02    IL-2        15 Longitudinal Sepsis         1
 7 S02    IL-6        16 Longitudinal Sepsis         2
 8 S02    IL-10       18 Longitudinal Sepsis         2
 9 S02    IL-2        14 Longitudinal Sepsis         2
10 S02    IL-6        16 Longitudinal Sepsis         2
# ℹ 26 more rows

bind_rows(list("s2" = s02, "s3" = s03), .id = "Patient")

# A tibble: 36 × 6
   Patient Sample Cytokine Value Project             TimePoint
   <chr>   <chr>  <chr>    <dbl> <chr>                   <dbl>
 1 s2      S02    IL-6       187 Longitudinal Sepsis         1
 2 s2      S02    IL-10       37 Longitudinal Sepsis         1
 3 s2      S02    IL-2        15 Longitudinal Sepsis         1
 4 s2      S02    IL-6       190 Longitudinal Sepsis         1
 5 s2      S02    IL-10       39 Longitudinal Sepsis         1
 6 s2      S02    IL-2        15 Longitudinal Sepsis         1
 7 s2      S02    IL-6        16 Longitudinal Sepsis         2
 8 s2      S02    IL-10       18 Longitudinal Sepsis         2
 9 s2      S02    IL-2        14 Longitudinal Sepsis         2
10 s2      S02    IL-6        16 Longitudinal Sepsis         2
# ℹ 26 more rows
…
