Data Science in Healthcare Field with R
…
Create Table 1 (demograhphic table)

moonBook::mytable()

tableone::CreateTableOne()

gtsummary::tbl_summary()

library(tidyverse)
library(here)
data <- read_csv(here("data/raw/tutorial_ipa.csv"))
data

# A tibble: 265 × 18
   PatientID   IPA   sex age_label BMI_label underlying_disease
       <dbl> <dbl> <dbl>     <dbl>     <dbl>              <dbl>
 1         1     1     1         4         2                  1
 2         1     1     1         4         2                  1
 3         1     1     1         4         2                  1
 4         1     1     1         4         2                  1
 5         1     1     1         4         2                  1
 6         2     1     0         4         1                  1
 7         3     1     1         1         0                  4
 8         4     1     0         3         1                  1
 9         5     1     0         4         2                  3
10         5     1     0         4         2                  3
# ℹ 255 more rows
# ℹ 12 more variables: lung_transplantation_type <dbl>, HTN <dbl>, DM <dbl>,
#   CKD <dbl>, LC <dbl>, CVD <dbl>, candida <dbl>, crypto <dbl>, other <dbl>,
#   serum_AGT <dbl>, BALF_AGT <dbl>, BDG <dbl>

result <- data %>%
    select(-PatientID) %>%
    mutate(across(c(-serum_AGT, -BALF_AGT, -BDG), factor))
result

# A tibble: 265 × 17
   IPA   sex   age_label BMI_label underlying_disease lung_transplantation_type
   <fct> <fct> <fct>     <fct>     <fct>              <fct>                    
 1 1     1     4         2         1                  2                        
 2 1     1     4         2         1                  2                        
 3 1     1     4         2         1                  2                        
 4 1     1     4         2         1                  2                        
 5 1     1     4         2         1                  2                        
 6 1     0     4         1         1                  2                        
 7 1     1     1         0         4                  2                        
 8 1     0     3         1         1                  2                        
 9 1     0     4         2         3                  2                        
10 1     0     4         2         3                  2                        
# ℹ 255 more rows
# ℹ 11 more variables: HTN <fct>, DM <fct>, CKD <fct>, LC <fct>, CVD <fct>,
#   candida <fct>, crypto <fct>, other <fct>, serum_AGT <dbl>, BALF_AGT <dbl>,
#   BDG <dbl>
…
